<svg width="1707" height="1066" viewBox="0 0 1707 1066" fill="none" xmlns="http://www.w3.org/2000/svg">
<rect width="1707" height="1066" fill="#F0F8FF"/>
<rect x="695.398" y="736" width="2" height="21" rx="1" fill="black"/>
<rect x="668.398" y="736" width="2" height="21" rx="1" fill="black"/>
<rect x="697.398" y="736" width="2" height="29" rx="1" transform="rotate(90 697.398 736)" fill="black"/>
<rect x="680.398" y="755" width="2" height="12" transform="rotate(90 680.398 755)" fill="black"/>
<rect x="697.398" y="755" width="2" height="11" transform="rotate(90 697.398 755)" fill="black"/>
<rect x="681.398" y="723.414" width="2" height="21" rx="1" transform="rotate(-45 681.398 723.414)" fill="black"/>
<rect x="682.703" y="722" width="2" height="20.7932" rx="1" transform="rotate(45 682.703 722)" fill="black"/>
<rect x="678.398" y="742" width="10" height="15" rx="1" fill="black"/>
<rect x="680.398" y="744" width="6" height="13" fill="#E5E5E5"/>
<rect x="671.398" y="744" width="1" height="7" fill="black"/>
<rect x="676.398" y="747" width="1" height="5" transform="rotate(90 676.398 747)" fill="black"/>
<rect x="676.398" y="750" width="1" height="5" transform="rotate(90 676.398 750)" fill="black"/>
<rect x="676.398" y="744" width="1" height="5" transform="rotate(90 676.398 744)" fill="black"/>
<rect x="675.398" y="744" width="1" height="7" fill="black"/>
<rect x="673.398" y="744" width="1" height="7" fill="black"/>
<path d="M686 750C686 750.552 685.552 751 685 751C684.448 751 684 750.552 684 750C684 749.448 684.448 749 685 749C685.552 749 686 749.448 686 750Z" fill="black"/>
<circle cx="683" cy="731" r="4" fill="black"/>
<circle cx="683" cy="731" r="3" fill="#E5E5E5"/>
<line x1="675.898" y1="724" x2="675.898" y2="730" stroke="black"/>
<line x1="675.398" y1="724.5" x2="671.398" y2="724.5" stroke="black"/>
<line x1="671.898" y1="724" x2="671.898" y2="734" stroke="black"/>
<g clip-path="url(#clip0_0_1)">
<path d="M383.733 46.9333L383.333 93.8667L369.333 98C345.2 105.2 328.133 112.133 303.467 124.4L279.733 136.267L246.533 103.2L213.333 70L142 141.333L70.6667 212.667L103.733 246L136.8 279.333L124.667 303.333C112.533 327.333 102.8 351.6 97.2 371.867L94.2667 382.667H47.0667H0V484V585.333H47.3333C88.6667 585.333 94.6667 585.6 94.6667 587.333C94.6667 590.8 107.333 627.867 113.333 642C116.4 649.333 122.933 662.933 127.733 672.4L136.667 689.333L103.6 722.4L70.6667 755.333L142 826.667L213.333 898L246.4 864.933L279.6 831.733L294.8 839.867C320.667 853.467 344.133 862.667 382.4 874.133C383.6 874.533 384 885.067 384 921.333V968H484.667H585.333L585.6 921.067L586 874.267L600 869.867C624.533 862.4 640 856.133 665.067 843.733L689.6 831.6L722.4 864.4L755.333 897.333L826.667 826L898 754.667L864.933 721.6L831.867 688.533L838.8 676C851.2 653.2 863.467 623.333 871.333 597.067L874.8 585.333L921.733 585.067L968.667 584.667V484V383.333L922 382.933L875.333 382.533L867.6 358.933C859.6 334.4 848.8 309.2 838.133 290.4L831.867 279.467L864.933 246.4L898 213.333L826.667 142L755.333 70.6667L722.4 103.6L689.6 136.4L668.4 125.733C645.867 114.267 616 102.267 597.067 97.2L585.333 94V46.9333V-1.99676e-05H484.667H384L383.733 46.9333ZM505.067 281.467C585.867 290.133 652.667 343.867 677.867 420.133C683.867 438.4 688.667 476.533 687.6 497.333C685.333 540.533 667.6 583.467 637.733 618C591.067 672 516.8 697.6 446.533 684C404.667 676 371.467 658.133 340.533 627.333C316.933 603.867 301.333 578.8 291.333 548.8C270.933 487.467 279.733 424.133 316.133 369.333C326.933 352.933 353.6 326.133 369.6 315.6C410.267 288.533 458.533 276.4 505.067 281.467Z" fill="#211DEF"/>
<path d="M1523.73 332.933L1523.33 347.2L1513.07 350.8C1507.33 352.8 1500.13 355.867 1496.8 357.733L1490.93 360.933L1480.53 350.533L1470 340L1448.4 361.6C1436.4 373.6 1426.67 383.867 1426.67 384.667C1426.67 385.467 1431.07 390.533 1436.53 395.867L1446.53 405.733L1443.33 411.2C1441.6 414.267 1438.67 421.333 1436.67 426.933L1432.93 437.333H1418.53H1404V469.333V501.333H1418.4H1432.93L1434.53 506.933C1435.47 510.133 1438.4 517.333 1441.07 523.067L1445.73 533.467L1436.27 543.067C1430.93 548.4 1426.67 553.333 1426.67 554C1426.67 554.667 1436.4 565.067 1448.27 576.933L1470 598.667L1480.27 588.4L1490.53 578.133L1501.07 583.067C1506.8 585.867 1514.13 588.8 1517.47 589.733L1523.33 591.467L1523.73 606.4L1524.13 621.333H1555.33H1586.53L1586.93 606.533L1587.33 591.733L1597.33 588C1602.8 586 1610 583.067 1613.2 581.467L1619.07 578.4L1629.47 588.8L1640 599.333L1662.27 576.933L1684.67 554.667L1674.13 544.133L1663.73 533.733L1667.47 526.533C1669.47 522.533 1672.53 515.467 1674.13 510.667L1677.2 502L1692 501.6L1706.67 501.2V469.333V437.467L1692 437.067L1677.2 436.667L1674.13 428C1672.53 423.2 1669.47 416.133 1667.47 412.133L1663.73 404.933L1673.87 394.8L1684 384.667L1662 362.667L1640 340.667L1630.27 350.4C1624.93 355.6 1620.13 360 1619.47 360C1618.8 360 1614.67 358.267 1610.13 356.133C1605.6 354 1598.53 351.2 1594.4 349.867L1586.67 347.467V333.067V318.667H1555.33H1524.13L1523.73 332.933ZM1575.6 409.467C1586.4 413.2 1593.07 417.467 1600.93 425.6C1634.67 461.467 1617.87 518.8 1570 531.333C1541.47 538.667 1510.8 524 1497.73 496.533C1493.2 487.067 1492.67 484.667 1492.27 472.933C1491.87 464.933 1492.4 457.467 1493.33 453.6C1502.93 418 1540.93 397.467 1575.6 409.467Z" fill="#211DEF"/>
<path d="M1116.67 538.8C1088.93 549.733 1065.87 559.067 1065.47 559.333C1065.2 559.733 1069.2 570.933 1074.4 584.267C1079.73 597.467 1083.87 608.533 1083.73 608.667C1078.4 611.867 1059.87 628.533 1050.4 638.533L1038 651.867L1015.33 642C1002.93 636.533 992 632 991.2 632C990 632 944.533 734.4 945.6 735.2C945.733 735.467 956.533 740.133 969.333 745.733L992.667 755.867L992 763.6C991.6 767.867 991.333 782.133 991.333 795.467V819.6L967.733 828.8C954.667 833.867 944 838.533 944 839.333C944 840.4 983.733 942.533 984.667 943.6C984.8 943.867 995.333 939.733 1008 934.667C1020.8 929.467 1031.87 925.333 1032.8 925.333C1033.6 925.333 1036.93 928.8 1040.27 932.933C1047.87 942.533 1059.73 954.8 1069.73 963.6L1077.47 970.267L1067.2 993.867C1061.33 1007.33 1057.47 1017.87 1058.13 1018.53C1058.8 1019.07 1067.73 1023.2 1078 1027.6C1088.27 1032.13 1110.67 1041.73 1127.73 1049.2C1144.8 1056.67 1159.2 1062.67 1159.87 1062.67C1160.4 1062.67 1165.33 1052.27 1170.93 1039.73L1180.93 1016.67H1212.93H1244.93L1254 1040C1258.93 1052.8 1263.47 1063.73 1263.87 1064.27C1264.27 1064.67 1270.4 1062.8 1277.33 1060.13C1284.27 1057.33 1307.87 1048 1329.73 1039.47C1354.67 1029.6 1369.33 1023.2 1368.93 1022.27C1362.13 1005.73 1350.4 974.533 1350.8 974.267C1360.93 967.333 1382.53 946.933 1392.27 935.067L1395.73 930.8L1419.47 941.333C1432.67 947.067 1443.73 951.333 1444.13 950.933C1445.07 949.867 1487.6 852.267 1488.27 849.6C1488.53 848.4 1480.53 844.267 1464.93 837.6L1441.07 827.333L1442.13 820.667C1442.67 816.933 1443.2 802.667 1443.2 788.667L1443.33 763.467L1466 754.4C1478.53 749.6 1489.2 745.333 1489.87 745.067C1491.33 744.4 1450.4 640 1448.67 640C1448 640 1437.6 643.867 1425.6 648.667C1413.73 653.333 1403.2 657.333 1402.27 657.6C1401.2 657.867 1395.87 652.533 1390.4 645.867C1384.8 639.2 1375.2 629.333 1369.07 624C1363.07 618.533 1357.87 613.733 1357.6 613.2C1357.33 612.533 1361.73 601.467 1367.33 588.667C1372.93 575.733 1377.33 564.933 1377.07 564.667C1376.8 564.533 1353.6 554.4 1325.47 542.133C1286.53 525.2 1274 520.267 1273.2 521.6C1272.53 522.533 1267.73 533.467 1262.4 545.733L1252.67 568.133L1248.67 567.2C1246.53 566.667 1232.13 566.133 1216.93 566L1189.07 565.733L1179.73 542.267C1174.67 529.2 1169.73 518.667 1168.93 518.8C1168 518.8 1144.53 527.733 1116.67 538.8ZM1238.8 679.467C1262 683.867 1280.4 693.733 1298 711.333C1311.47 724.933 1319.47 737.6 1325.47 755.067C1333.33 778 1333.6 799.067 1326.4 823.067C1319.73 845.333 1311.73 858.8 1296.53 873.467C1285.33 884.133 1277.47 889.6 1264.93 895.333C1232.53 910.267 1196.53 909.333 1163.87 892.533C1126.8 873.333 1102.67 833.867 1102.67 792.133C1102.67 761.867 1113.6 734.933 1134.4 713.067C1161.87 684.267 1199.87 672.133 1238.8 679.467Z" fill="#211DEF"/>
</g>
<defs>
<clipPath id="clip0_0_1">
<rect width="1706.67" height="1065.33" fill="white"/>
</clipPath>
</defs>
</svg>
